[
  {
      "id": 1,
      "name": "Clint Stehr",
      "language_id": 10,
      "created_at": null,
      "updated_at": null,
      "language": {
          "id": 10,
          "name": "eligendi",
          "created_at": null,
          "updated_at": null
      },
      "departments": [
          {
              "id": 7,
              "name": "Nikolaus, Senger and Reichert",
              "company_code": "44493004",
              "created_at": null,
              "updated_at": null,
              "pivot": {
                  "employee_id": 1,
                  "department_id": 7
              }
          }
      ]
  },
  {
      "id": 2,
      "name": "Mr. Llewellyn Goodwin DDS",
      "language_id": 9,
      "created_at": null,
      "updated_at": null,
      "language": {
          "id": 9,
          "name": "excepturi",
          "created_at": null,
          "updated_at": null
      },
      "departments": [
          {
              "id": 3,
              "name": "Eichmann and Sons",
              "company_code": "48715645",
              "created_at": null,
              "updated_at": null,
              "pivot": {
                  "employee_id": 2,
                  "department_id": 3
              }
          }
      ]
  },
  {
      "id": 3,
      "name": "Dr. Wilber Lueilwitz DDS",
      "language_id": 6,
      "created_at": null,
      "updated_at": null,
      "language": {
          "id": 6,
          "name": "reiciendis",
          "created_at": null,
          "updated_at": null
      },
      "departments": [
          {
              "id": 10,
              "name": "Schumm LLC",
              "company_code": "21680564",
              "created_at": null,
              "updated_at": null,
              "pivot": {
                  "employee_id": 3,
                  "department_id": 10
              }
          }
      ]
  },
  {
      "id": 4,
      "name": "Elvie Herman",
      "language_id": 3,
      "created_at": null,
      "updated_at": null,
      "language": {
          "id": 3,
          "name": "vel",
          "created_at": null,
          "updated_at": null
      },
      "departments": [
          {
              "id": 7,
              "name": "Nikolaus, Senger and Reichert",
              "company_code": "44493004",
              "created_at": null,
              "updated_at": null,
              "pivot": {
                  "employee_id": 4,
                  "department_id": 7
              }
          }
      ]
  },
  {
      "id": 5,
      "name": "Miss April Schimmel",
      "language_id": 3,
      "created_at": null,
      "updated_at": null,
      "language": {
          "id": 3,
          "name": "vel",
          "created_at": null,
          "updated_at": null
      },
      "departments": [
          {
              "id": 10,
              "name": "Schumm LLC",
              "company_code": "21680564",
              "created_at": null,
              "updated_at": null,
              "pivot": {
                  "employee_id": 5,
                  "department_id": 10
              }
          }
      ]
  },
  {
      "id": 6,
      "name": "Thalia Hoppe",
      "language_id": 5,
      "created_at": null,
      "updated_at": null,
      "language": {
          "id": 5,
          "name": "at",
          "created_at": null,
          "updated_at": null
      },
      "departments": [
          {
              "id": 6,
              "name": "Terry, Kub and Glover",
              "company_code": "41871973",
              "created_at": null,
              "updated_at": null,
              "pivot": {
                  "employee_id": 6,
                  "department_id": 6
              }
          }
      ]
  },
  {
      "id": 7,
      "name": "Maudie Raynor",
      "language_id": 6,
      "created_at": null,
      "updated_at": null,
      "language": {
          "id": 6,
          "name": "reiciendis",
          "created_at": null,
          "updated_at": null
      },
      "departments": [
          {
              "id": 3,
              "name": "Eichmann and Sons",
              "company_code": "48715645",
              "created_at": null,
              "updated_at": null,
              "pivot": {
                  "employee_id": 7,
                  "department_id": 3
              }
          }
      ]
  },
  {
      "id": 8,
      "name": "Lemuel McLaughlin",
      "language_id": 6,
      "created_at": null,
      "updated_at": null,
      "language": {
          "id": 6,
          "name": "reiciendis",
          "created_at": null,
          "updated_at": null
      },
      "departments": [
          {
              "id": 9,
              "name": "Donnelly-Carter",
              "company_code": "95816890",
              "created_at": null,
              "updated_at": null,
              "pivot": {
                  "employee_id": 8,
                  "department_id": 9
              }
          }
      ]
  },
  {
      "id": 9,
      "name": "Colt Price",
      "language_id": 8,
      "created_at": null,
      "updated_at": null,
      "language": {
          "id": 8,
          "name": "provident",
          "created_at": null,
          "updated_at": null
      },
      "departments": [
          {
              "id": 1,
              "name": "Hill-Morar",
              "company_code": "13950132",
              "created_at": null,
              "updated_at": null,
              "pivot": {
                  "employee_id": 9,
                  "department_id": 1
              }
          }
      ]
  },
  {
      "id": 10,
      "name": "Rocio Towne",
      "language_id": 7,
      "created_at": null,
      "updated_at": null,
      "language": {
          "id": 7,
          "name": "temporibus",
          "created_at": null,
          "updated_at": null
      },
      "departments": [
          {
              "id": 7,
              "name": "Nikolaus, Senger and Reichert",
              "company_code": "44493004",
              "created_at": null,
              "updated_at": null,
              "pivot": {
                  "employee_id": 10,
                  "department_id": 7
              }
          }
      ]
  },
  {
      "id": 11,
      "name": "Leomar Esparragoza",
      "language_id": 2,
      "created_at": "2022-09-10T20:09:04.000000Z",
      "updated_at": "2022-09-10T20:09:04.000000Z",
      "language": {
          "id": 2,
          "name": "amet",
          "created_at": null,
          "updated_at": null
      },
      "departments": [
          {
              "id": 1,
              "name": "Hill-Morar",
              "company_code": "13950132",
              "created_at": null,
              "updated_at": null,
              "pivot": {
                  "employee_id": 11,
                  "department_id": 1
              }
          },
          {
              "id": 2,
              "name": "Davis, Cartwright and Mann",
              "company_code": "87267037",
              "created_at": null,
              "updated_at": null,
              "pivot": {
                  "employee_id": 11,
                  "department_id": 2
              }
          },
          {
              "id": 3,
              "name": "Eichmann and Sons",
              "company_code": "48715645",
              "created_at": null,
              "updated_at": null,
              "pivot": {
                  "employee_id": 11,
                  "department_id": 3
              }
          },
          {
              "id": 4,
              "name": "Swaniawski-Bednar",
              "company_code": "94567311",
              "created_at": null,
              "updated_at": null,
              "pivot": {
                  "employee_id": 11,
                  "department_id": 4
              }
          }
      ]
  },
  {
      "id": 13,
      "name": "Leomar Esparragoza",
      "language_id": 5,
      "created_at": "2022-09-10T20:09:24.000000Z",
      "updated_at": "2022-09-10T20:09:24.000000Z",
      "language": {
          "id": 5,
          "name": "at",
          "created_at": null,
          "updated_at": null
      },
      "departments": [
          {
              "id": 1,
              "name": "Hill-Morar",
              "company_code": "13950132",
              "created_at": null,
              "updated_at": null,
              "pivot": {
                  "employee_id": 13,
                  "department_id": 1
              }
          },
          {
              "id": 2,
              "name": "Davis, Cartwright and Mann",
              "company_code": "87267037",
              "created_at": null,
              "updated_at": null,
              "pivot": {
                  "employee_id": 13,
                  "department_id": 2
              }
          },
          {
              "id": 3,
              "name": "Eichmann and Sons",
              "company_code": "48715645",
              "created_at": null,
              "updated_at": null,
              "pivot": {
                  "employee_id": 13,
                  "department_id": 3
              }
          },
          {
              "id": 4,
              "name": "Swaniawski-Bednar",
              "company_code": "94567311",
              "created_at": null,
              "updated_at": null,
              "pivot": {
                  "employee_id": 13,
                  "department_id": 4
              }
          },
          {
              "id": 10,
              "name": "Schumm LLC",
              "company_code": "21680564",
              "created_at": null,
              "updated_at": null,
              "pivot": {
                  "employee_id": 13,
                  "department_id": 10
              }
          }
      ]
  },
  {
      "id": 15,
      "name": "Leomar Esparragoza",
      "language_id": 5,
      "created_at": "2022-09-10T20:09:37.000000Z",
      "updated_at": "2022-09-10T20:09:37.000000Z",
      "language": {
          "id": 5,
          "name": "at",
          "created_at": null,
          "updated_at": null
      },
      "departments": [
          {
              "id": 1,
              "name": "Hill-Morar",
              "company_code": "13950132",
              "created_at": null,
              "updated_at": null,
              "pivot": {
                  "employee_id": 15,
                  "department_id": 1
              }
          },
          {
              "id": 2,
              "name": "Davis, Cartwright and Mann",
              "company_code": "87267037",
              "created_at": null,
              "updated_at": null,
              "pivot": {
                  "employee_id": 15,
                  "department_id": 2
              }
          },
          {
              "id": 3,
              "name": "Eichmann and Sons",
              "company_code": "48715645",
              "created_at": null,
              "updated_at": null,
              "pivot": {
                  "employee_id": 15,
                  "department_id": 3
              }
          },
          {
              "id": 4,
              "name": "Swaniawski-Bednar",
              "company_code": "94567311",
              "created_at": null,
              "updated_at": null,
              "pivot": {
                  "employee_id": 15,
                  "department_id": 4
              }
          }
      ]
  },
  {
      "id": 16,
      "name": "Leomar Esparragoza",
      "language_id": 5,
      "created_at": "2022-09-10T20:09:41.000000Z",
      "updated_at": "2022-09-10T20:09:41.000000Z",
      "language": {
          "id": 5,
          "name": "at",
          "created_at": null,
          "updated_at": null
      },
      "departments": [
          {
              "id": 1,
              "name": "Hill-Morar",
              "company_code": "13950132",
              "created_at": null,
              "updated_at": null,
              "pivot": {
                  "employee_id": 16,
                  "department_id": 1
              }
          },
          {
              "id": 2,
              "name": "Davis, Cartwright and Mann",
              "company_code": "87267037",
              "created_at": null,
              "updated_at": null,
              "pivot": {
                  "employee_id": 16,
                  "department_id": 2
              }
          },
          {
              "id": 3,
              "name": "Eichmann and Sons",
              "company_code": "48715645",
              "created_at": null,
              "updated_at": null,
              "pivot": {
                  "employee_id": 16,
                  "department_id": 3
              }
          },
          {
              "id": 4,
              "name": "Swaniawski-Bednar",
              "company_code": "94567311",
              "created_at": null,
              "updated_at": null,
              "pivot": {
                  "employee_id": 16,
                  "department_id": 4
              }
          }
      ]
  },
  {
      "id": 17,
      "name": "Leomar Esparragoza",
      "language_id": 5,
      "created_at": "2022-09-10T20:24:19.000000Z",
      "updated_at": "2022-09-10T20:24:19.000000Z",
      "language": {
          "id": 5,
          "name": "at",
          "created_at": null,
          "updated_at": null
      },
      "departments": [
          {
              "id": 1,
              "name": "Hill-Morar",
              "company_code": "13950132",
              "created_at": null,
              "updated_at": null,
              "pivot": {
                  "employee_id": 17,
                  "department_id": 1
              }
          },
          {
              "id": 2,
              "name": "Davis, Cartwright and Mann",
              "company_code": "87267037",
              "created_at": null,
              "updated_at": null,
              "pivot": {
                  "employee_id": 17,
                  "department_id": 2
              }
          },
          {
              "id": 3,
              "name": "Eichmann and Sons",
              "company_code": "48715645",
              "created_at": null,
              "updated_at": null,
              "pivot": {
                  "employee_id": 17,
                  "department_id": 3
              }
          },
          {
              "id": 4,
              "name": "Swaniawski-Bednar",
              "company_code": "94567311",
              "created_at": null,
              "updated_at": null,
              "pivot": {
                  "employee_id": 17,
                  "department_id": 4
              }
          }
      ]
  },
  {
      "id": 18,
      "name": "a",
      "language_id": 5,
      "created_at": "2022-09-10T20:54:06.000000Z",
      "updated_at": "2022-09-10T20:54:06.000000Z",
      "language": {
          "id": 5,
          "name": "at",
          "created_at": null,
          "updated_at": null
      },
      "departments": [
          {
              "id": 1,
              "name": "Hill-Morar",
              "company_code": "13950132",
              "created_at": null,
              "updated_at": null,
              "pivot": {
                  "employee_id": 18,
                  "department_id": 1
              }
          },
          {
              "id": 2,
              "name": "Davis, Cartwright and Mann",
              "company_code": "87267037",
              "created_at": null,
              "updated_at": null,
              "pivot": {
                  "employee_id": 18,
                  "department_id": 2
              }
          },
          {
              "id": 3,
              "name": "Eichmann and Sons",
              "company_code": "48715645",
              "created_at": null,
              "updated_at": null,
              "pivot": {
                  "employee_id": 18,
                  "department_id": 3
              }
          }
      ]
  },
  {
      "id": 19,
      "name": "a",
      "language_id": 5,
      "created_at": "2022-09-13T00:21:09.000000Z",
      "updated_at": "2022-09-13T00:21:09.000000Z",
      "language": {
          "id": 5,
          "name": "at",
          "created_at": null,
          "updated_at": null
      },
      "departments": [
          {
              "id": 1,
              "name": "Hill-Morar",
              "company_code": "13950132",
              "created_at": null,
              "updated_at": null,
              "pivot": {
                  "employee_id": 19,
                  "department_id": 1
              }
          },
          {
              "id": 2,
              "name": "Davis, Cartwright and Mann",
              "company_code": "87267037",
              "created_at": null,
              "updated_at": null,
              "pivot": {
                  "employee_id": 19,
                  "department_id": 2
              }
          },
          {
              "id": 3,
              "name": "Eichmann and Sons",
              "company_code": "48715645",
              "created_at": null,
              "updated_at": null,
              "pivot": {
                  "employee_id": 19,
                  "department_id": 3
              }
          }
      ]
  },
  {
      "id": 20,
      "name": "aa",
      "language_id": 5,
      "created_at": "2022-09-13T00:22:09.000000Z",
      "updated_at": "2022-09-13T00:22:09.000000Z",
      "language": {
          "id": 5,
          "name": "at",
          "created_at": null,
          "updated_at": null
      },
      "departments": [
          {
              "id": 1,
              "name": "Hill-Morar",
              "company_code": "13950132",
              "created_at": null,
              "updated_at": null,
              "pivot": {
                  "employee_id": 20,
                  "department_id": 1
              }
          },
          {
              "id": 2,
              "name": "Davis, Cartwright and Mann",
              "company_code": "87267037",
              "created_at": null,
              "updated_at": null,
              "pivot": {
                  "employee_id": 20,
                  "department_id": 2
              }
          },
          {
              "id": 3,
              "name": "Eichmann and Sons",
              "company_code": "48715645",
              "created_at": null,
              "updated_at": null,
              "pivot": {
                  "employee_id": 20,
                  "department_id": 3
              }
          }
      ]
  }
]